module gitlab.com/frog_in_fog000/delivery-system/visualizer

go 1.22.1

require (
	github.com/fogleman/gg v1.3.0
	github.com/gorilla/mux v1.8.1
	github.com/prometheus/client_golang v1.19.0
	github.com/redis/go-redis/v9 v9.5.1
	github.com/spf13/viper v1.18.2
	go.elastic.co/ecszap v1.0.2
	go.mongodb.org/mongo-driver v1.11.4
	go.uber.org/zap v1.27.0
	gopkg.in/gomail.v2 v2.0.0-20160411212932-81ebce5c23df
)

require (
	github.com/beorn7/perks v1.0.1 // indirect
	github.com/cespare/xxhash/v2 v2.2.0 // indirect
	github.com/dgryski/go-rendezvous v0.0.0-20200823014737-9f7001d12a5f // indirect
	github.com/fsnotify/fsnotify v1.7.0 // indirect
	github.com/golang/freetype v0.0.0-20170609003504-e2365dfdc4a0 // indirect
	github.com/golang/snappy v0.0.1 // indirect
	github.com/hashicorp/hcl v1.0.0 // indirect
	github.com/klauspost/compress v1.17.0 // indirect
	github.com/magiconair/properties v1.8.7 // indirect
	github.com/mitchellh/mapstructure v1.5.0 // indirect
	github.com/montanaflynn/stats v0.0.0-20171201202039-1bf9dbcd8cbe // indirect
	github.com/pelletier/go-toml/v2 v2.1.0 // indirect
	github.com/pkg/errors v0.9.1 // indirect
	github.com/prometheus/client_model v0.5.0 // indirect
	github.com/prometheus/common v0.48.0 // indirect
	github.com/prometheus/procfs v0.12.0 // indirect
	github.com/sagikazarmark/locafero v0.4.0 // indirect
	github.com/sagikazarmark/slog-shim v0.1.0 // indirect
	github.com/sourcegraph/conc v0.3.0 // indirect
	github.com/spf13/afero v1.11.0 // indirect
	github.com/spf13/cast v1.6.0 // indirect
	github.com/spf13/pflag v1.0.5 // indirect
	github.com/subosito/gotenv v1.6.0 // indirect
	github.com/xdg-go/pbkdf2 v1.0.0 // indirect
	github.com/xdg-go/scram v1.1.1 // indirect
	github.com/xdg-go/stringprep v1.0.3 // indirect
	github.com/youmark/pkcs8 v0.0.0-20181117223130-1be2e3e5546d // indirect
	go.uber.org/multierr v1.10.0 // indirect
	golang.org/x/crypto v0.16.0 // indirect
	golang.org/x/exp v0.0.0-20230905200255-921286631fa9 // indirect
	golang.org/x/image v0.16.0 // indirect
	golang.org/x/sync v0.5.0 // indirect
	golang.org/x/sys v0.16.0 // indirect
	golang.org/x/text v0.15.0 // indirect
	google.golang.org/protobuf v1.32.0 // indirect
	gopkg.in/alexcesaro/quotedprintable.v3 v3.0.0-20150716171945-2caba252f4dc // indirect
	gopkg.in/ini.v1 v1.67.0 // indirect
	gopkg.in/yaml.v3 v3.0.1 // indirect
)
